X center;Y center;Projected deg;Error %;Projected deg without distortion;Error % no dist
0.0;0.0;39.0196013602;0.848570782142;39.0176298512;0.895991571546
0.05;0.0375;39.04065243;0.902978572638;39.0393847872;0.952247829358
0.1;0.075;39.0661453745;0.968866663028;39.0608356257;1.00771771887
0.15;0.1125;39.0958820179;1.04572285532;39.0818661945;1.06210082973
0.2;0.15;39.1297564385;1.13327338851;39.1029480157;1.11661647457
0.25;0.1875;39.1670408522;1.22963725961;39.1236847373;1.17023972393
0.3;0.225;39.2074482456;1.33407266465;39.1441105278;1.2230589338
0.35;0.2625;39.2508111942;1.44614688461;39.1642527216;1.27514478896
0.4;0.3;39.2954417854;1.56149740554;39.1842855769;1.32694790496
0.45;0.3375;39.3408240786;1.67879074645;39.2039528318;1.37780561188
0.5;0.375;39.3864318823;1.79666693336;39.2233364901;1.4279299641
0.55;0.4125;39.4306148693;1.91086059331;39.2427235652;1.47806315191
0.6;0.45;39.4728605155;2.02004707629;39.2616152004;1.5269151779
0.65;0.4875;39.5123214479;2.12203629435;39.2800968164;1.57470693202
0.7;0.525;39.5477197732;2.2135254535;39.2984588435;1.62218944019
0.75;0.5625;39.5785395507;2.29318107277;39.3168994576;1.66987516713
0.8;0.6;39.603800151;2.35846865516;39.3344721976;1.71531665196
0.85;0.6375;39.6230983886;2.4083461427;39.3521474425;1.76102320476
0.9;0.675;39.635890988;2.44140940639;39.3695288403;1.80596989605
0.95;0.7125;39.6420310257;2.45727871325;39.3863772131;1.84953823393
1.0;0.75;39.6418328498;2.45676651525;39.4033246739;1.89336280418
1.05;0.7875;39.6356723111;2.4408442224;39.4198655323;1.93613593816
1.1;0.825;39.6248102188;2.41277047366;39.4357606104;1.97723914396
1.15;0.8625;39.6107568103;2.37644857099;39.4519768703;2.01917289606
1.2;0.9;39.5956783538;2.33747736835;39.4675370994;2.05941021317
1.25;0.9375;39.5822433909;2.30275387668;39.4824481314;2.09796876651
1.3;0.975;39.5747707908;2.28344047986;39.49778285;2.1376229341
1.35;1.0125;39.577842518;2.29137954878;39.5124342032;2.17550998193
1.4;1.05;39.5980120464;2.3435089413;39.5270616386;2.21333518056
1.45;1.0875;39.6417064272;2.45643976825;39.540879286;2.24906634227
1.5;1.125;39.7169893714;2.65101318945;39.5547891878;2.28503606515
1.55;1.1625;39.8330008908;2.95085212968;39.5682275675;2.31978647538
1.6;1.2;39.9991065074;3.3801623597;39.5817342837;2.3547135976
1.65;1.2375;40.2251603497;3.96441248329;39.5946806403;2.3881916816
1.7;1.275;40.5194106375;4.72492053425;39.6070973888;2.42030024779
1.75;1.3125;40.890396021;5.68375518137;39.6193091277;2.45187867804
1.8;1.35;41.3433100767;6.85433954453;39.6311826007;2.48258238401
1.85;1.3875;41.8795195355;8.2402060237;39.642499131;2.51184588736
1.9;1.425;42.4961474291;9.83391891694;39.6540548391;2.54172788264
1.95;1.4625;43.1844193465;11.6128002165;39.6651082737;2.57031104489
