X center;Y center;Projected length;Error %;Projected length without distortion;Error % no dist
0.0;0.0;15.1818;0.0;15.1809;0.0
0.05;0.0375;15.1803;0.00964870632743;15.1809;0.000201026045943
0.1;0.075;15.1846;0.0184933538549;15.1809;0.000201026045943
0.15;0.1125;15.1944;0.0832326593809;15.1809;0.000201026045943
0.2;0.15;15.2094;0.182358047459;15.1809;0.000201026045943
0.25;0.1875;15.2292;0.312678399496;15.1809;0.000201026045943
0.3;0.225;15.2533;0.47099632211;15.1809;0.000201026045943
0.35;0.2625;15.2808;0.652487529442;15.1809;0.000201026045943
0.4;0.3;15.3112;0.852553732693;15.1809;0.0
0.45;0.3375;15.3435;1.06535293162;15.1809;0.000201026045943
0.5;0.375;15.3769;1.2852567248;15.1809;0.000201026045943
0.55;0.4125;15.4104;1.50620331988;15.1809;0.000201026045943
0.6;0.45;15.4432;1.72193609178;15.1809;0.000201026045943
0.65;0.4875;15.4742;1.92619208246;15.1809;0.000201026045943
0.7;0.525;15.5025;2.11288463324;15.1809;0.000201026045943
0.75;0.5625;15.5274;2.27656718343;15.1809;0.000201026045943
0.8;0.6;15.548;2.41237133741;15.1809;0.0
0.85;0.6375;15.5637;2.51606367528;15.1809;0.000201026045943
0.9;0.675;15.5742;2.58460957557;15.1809;0.000201026045943
0.95;0.7125;15.579;2.61642653495;15.1809;0.0
1.0;0.75;15.5782;2.6115456596;15.1809;0.000201026045943
1.05;0.7875;15.5722;2.57182009518;15.1809;0.000201026045943
1.1;0.825;15.5615;2.50133294612;15.1809;0.000201026045943
1.15;0.8625;15.5471;2.40637864918;15.1809;0.000201026045943
1.2;0.9;15.5304;2.29644235224;15.1809;0.0
1.25;0.9375;15.5133;2.18402501196;15.1809;0.0
1.3;0.975;15.4983;2.08498742431;15.1809;0.0
1.35;1.0125;15.4883;2.01901067048;15.181;0.000402052091886
1.4;1.05;15.487;2.01056189835;15.1809;0.0
1.45;1.0875;15.4987;2.08778288215;15.1809;0.0
1.5;1.125;15.5287;2.28499714285;15.1809;0.0
1.55;1.1625;15.5829;2.64204330742;15.1809;0.0
1.6;1.2;15.6685;3.20576392114;15.181;0.000402052091886
1.65;1.2375;15.7934;4.02873717248;15.181;0.000402052091886
1.7;1.275;15.9672;5.17377331853;15.1809;0.0
1.75;1.3125;16.2008;6.71209543943;15.1809;0.0
1.8;1.35;16.5066;8.72646346688;15.1809;0.0
1.85;1.3875;16.8987;11.309402436;15.181;0.000402052091886
1.9;1.425;17.3935;14.5684286952;15.181;0.000402052091886
1.95;1.4625;18.0094;18.625408411;15.1809;0.0
