X center;Y center;Projected length;Error %;Projected length without distortion;Error % no dist
0.0;0.0;14.9951;1.22980810702;14.9943;1.22947525233
0.05;0.0375;15.0233;1.04356165975;15.024;1.03377010673
0.1;0.075;15.0573;0.819668918848;15.0537;0.838046148419
0.15;0.1125;15.0969;0.559059623629;15.0834;0.642108591273
0.2;0.15;15.1418;0.263467477635;15.1132;0.445957435295
0.25;0.1875;15.1916;0.0645445717964;15.143;0.249397917651
0.3;0.225;15.2458;0.421628402546;15.1729;0.0528195931111
0.35;0.2625;15.3037;0.803386792541;15.2028;0.143959769048
0.4;0.3;15.3647;1.20521513745;15.2327;0.340952724218
0.45;0.3375;15.4279;1.62126533687;15.2626;0.538152968511
0.5;0.375;15.4924;2.04627327621;15.2926;0.735761597753
0.55;0.4125;15.5573;2.4733228609;15.3226;0.933370180428
0.6;0.45;15.6215;2.89648398757;15.3526;1.13117983565
0.65;0.4875;15.6842;3.30920480192;15.3827;1.32940402254
0.7;0.525;15.7442;3.70489619672;15.4128;1.52762830257
0.75;0.5625;15.8008;4.07778471708;15.4429;1.72603465617
0.8;0.6;15.8531;4.42229248583;15.4731;1.92486196756
0.85;0.6375;15.9004;4.73383404315;15.5033;2.12346948683
0.9;0.675;15.9422;5.009104684;15.5335;2.32268627733
0.95;0.7125;15.9782;5.24619519711;15.5638;2.52189040184
1.0;0.75;16.0083;5.44405654073;15.594;2.72129569203
1.05;0.7875;16.0327;5.60515746474;15.6243;2.9208894819
1.1;0.825;16.0521;5.73295243084;15.6547;3.1206715852
1.15;0.8625;16.0675;5.83449006081;15.685;3.32065485418
1.2;0.9;16.0804;5.9194188565;15.7154;3.52102145553
1.25;0.9375;16.0929;6.00152052939;15.7459;3.72158251703
1.3;0.975;16.1075;6.09794482589;15.7763;3.9219301194
1.35;1.0125;16.1276;6.23032562435;15.8068;4.12266068161
1.4;1.05;16.1574;6.4261265099;15.8373;4.32397574186
1.45;1.0875;16.2016;6.71732127666;15.8679;4.52508367598
1.5;1.125;16.2661;7.14224129915;15.8984;4.72596511245
1.55;1.1625;16.3578;7.74668008089;15.929;4.92783300579
1.6;1.2;16.485;8.58414545655;15.9596;5.12948706746
1.65;1.2375;16.6568;9.71579551697;15.9902;5.33130466938
1.7;1.275;16.8844;11.2150385976;16.0209;5.53331710398
1.75;1.3125;17.1802;13.1632983685;16.0516;5.73549903929
1.8;1.35;17.5587;15.6563073397;16.0824;5.93827143312
1.85;1.3875;18.0366;18.8041359186;16.1131;6.14041574299
1.9;1.425;18.6327;22.7309077978;16.1439;6.34353980422
1.95;1.4625;19.3685;27.5774985552;16.1747;6.54641315341
